…
    ## [1] 0.3416015

## can we iterate ..?

``` r
cv_df =
  crossv_mc(nonlin_df, 100)

cv_df %>% pull(train) %>% .[[1]] %>% as_tibble
```

    ## # A tibble: 79 × 3
    ##       id     x      y
    ##    <int> <dbl>  <dbl>
    ##  1     1 0.691 -0.941
    ##  2     2 0.237  1.24 
    ##  3     3 0.425  0.847
    ##  4     5 0.374  0.564
    ##  5     6 0.717 -0.459
    ##  6     7 0.389  1.23 
    ##  7     9 0.205  0.832
    ##  8    10 0.953 -3.44 
    ##  9    11 0.170  0.342
    ## 10    12 0.463  0.441
    ## # … with 69 more rows

``` r
cv_df %>% pull(test) %>% .[[1]] %>% as_tibble()
```

    ## # A tibble: 21 × 3
    ##       id     x       y
    ##    <int> <dbl>   <dbl>
    ##  1     4 0.225  0.708 
    ##  2     8 0.299  0.747 
    ##  3    22 0.530  0.653 
    ##  4    26 0.618 -0.0252
    ##  5    27 0.360  1.27  
    ##  6    29 0.279  0.819 
    ##  7    36 0.412  0.546 
    ##  8    38 0.419  0.467 
    ##  9    42 0.207  0.773 
    ## 10    49 0.641 -0.239 
    ## # … with 11 more rows
…
cv_df
```

    ## # A tibble: 100 × 7
    ##    train             test              .id   linear_fits smoot…¹ rmse_…² rmse_…³
    ##    <list>            <list>            <chr> <list>      <list>    <dbl>   <dbl>
    ##  1 <tibble [79 × 3]> <tibble [21 × 3]> 001   <lm>        <gam>     0.859   0.320
    ##  2 <tibble [79 × 3]> <tibble [21 × 3]> 002   <lm>        <gam>     0.748   0.305
    ##  3 <tibble [79 × 3]> <tibble [21 × 3]> 003   <lm>        <gam>     0.768   0.297
    ##  4 <tibble [79 × 3]> <tibble [21 × 3]> 004   <lm>        <gam>     0.812   0.340
    ##  5 <tibble [79 × 3]> <tibble [21 × 3]> 005   <lm>        <gam>     1.05    0.354
    ##  6 <tibble [79 × 3]> <tibble [21 × 3]> 006   <lm>        <gam>     0.835   0.260
    ##  7 <tibble [79 × 3]> <tibble [21 × 3]> 007   <lm>        <gam>     0.754   0.265
    ##  8 <tibble [79 × 3]> <tibble [21 × 3]> 008   <lm>        <gam>     0.871   0.229
    ##  9 <tibble [79 × 3]> <tibble [21 × 3]> 009   <lm>        <gam>     0.732   0.287
    ## 10 <tibble [79 × 3]> <tibble [21 × 3]> 010   <lm>        <gam>     0.927   0.232
    ## # … with 90 more rows, and abbreviated variable names ¹​smooth_fits,
    ## #   ²​rmse_linear, ³​rmse_smooth
…
